﻿<?xml version="1.0" encoding="utf-8"?>
<svg xmlns="http://www.w3.org/2000/svg" width="40" height="40">
  <g id="Гарм-Гауб-більш155" refX="13" refY="5" fill="none" stroke="black" stroke-width="2">
    <path d="M0,5 h38" />
    <path d="M38,0 v10" />
    <path d="M34,0 v10" />
    <path d="M18,0 h-10" />
    <path d="M18,10 h-10" />
    <path d="M30,0 v10" />
  </g>
</svg>