﻿<?xml version="1.0" encoding="utf-8"?>
<svg xmlns="http://www.w3.org/2000/svg" width="40" height="40">
  <g id="Гарм-ПТ-100" refX="13" refY="5" fill="none" stroke="black" stroke-width="2">
    <path d="M0,5 h33" />
    <path d="M38,0 l-5,5 l5,5" />
    <path d="M28,0 v10" />
    <path d="M24,0 v10" />
    <path d="M18,0 h-10" />
    <path d="M18,10 h-10" />
  </g>
</svg>